{
  "context": {
    "date": "2018-04-17 20:14:16",
    "num_cpus": 16,
    "mhz_per_cpu": 2394,
    "cpu_scaling_enabled": false,
    "caches": [
      {
        "type": "Data",
        "level": 1,
        "size": 32000000,
        "num_sharing": 4
      },
      {
        "type": "Instruction",
        "level": 1,
        "size": 32000000,
        "num_sharing": 4
      },
      {
        "type": "Unified",
        "level": 2,
        "size": 256000000,
        "num_sharing": 4
      },
      {
        "type": "Unified",
        "level": 3,
        "size": 30720000000,
        "num_sharing": 4
      }
    ],
    "library_build_type": "release"
  },
  "benchmarks": [
    {
      "name": "bm_binary_raffle/3/9/min_time:0.000/repeats:1",
      "iterations": 1,
      "real_time": 1.0251056205015629e+10,
      "cpu_time": 9.9544802429999981e+09,
      "time_unit": "ns",
      "ad_hoc_enc_ns": 1.9712025410000000e+09,
      "all_ctxts_correct": 1.0000000000000000e+00,
      "helib_level": 7.0000000000000000e+00,
      "helib_m": 7.7810000000000000e+03,
      "helib_simd_size": 1.5000000000000000e+02,
      "input_size": 8.0000000000000000e+00,
      "is_correct": 1.0000000000000000e+00,
      "ntl_threads": 1.6000000000000000e+01,
      "samples_count": 9.0000000000000000e+00
    },
    {
      "name": "bm_binary_raffle/4/16/min_time:0.000/repeats:1",
      "iterations": 1,
      "real_time": 3.9974812054075302e+10,
      "cpu_time": 3.8681476818000008e+10,
      "time_unit": "ns",
      "ad_hoc_enc_ns": 6.7045928010000000e+09,
      "all_ctxts_correct": 1.0000000000000000e+00,
      "helib_level": 7.0000000000000000e+00,
      "helib_m": 7.7810000000000000e+03,
      "helib_simd_size": 1.5000000000000000e+02,
      "input_size": 1.6000000000000000e+01,
      "is_correct": 1.0000000000000000e+00,
      "ntl_threads": 1.6000000000000000e+01,
      "samples_count": 1.6000000000000000e+01
    },
    {
      "name": "bm_binary_raffle/5/25/min_time:0.000/repeats:1",
      "iterations": 1,
      "real_time": 1.2257844740420114e+11,
      "cpu_time": 1.1781664217600000e+11,
      "time_unit": "ns",
      "ad_hoc_enc_ns": 1.9244977136000000e+10,
      "all_ctxts_correct": 1.0000000000000000e+00,
      "helib_level": 8.0000000000000000e+00,
      "helib_m": 7.7810000000000000e+03,
      "helib_simd_size": 1.5000000000000000e+02,
      "input_size": 3.2000000000000000e+01,
      "is_correct": 1.0000000000000000e+00,
      "ntl_threads": 1.6000000000000000e+01,
      "samples_count": 2.5000000000000000e+01
    },
    {
      "name": "bm_binary_raffle/6/36/min_time:0.000/repeats:1",
      "iterations": 1,
      "real_time": 3.7255698519095312e+11,
      "cpu_time": 3.5563549402800006e+11,
      "time_unit": "ns",
      "ad_hoc_enc_ns": 6.1271639576000000e+10,
      "all_ctxts_correct": 1.0000000000000000e+00,
      "helib_level": 9.0000000000000000e+00,
      "helib_m": 8.1910000000000000e+03,
      "helib_simd_size": 6.3000000000000000e+02,
      "input_size": 6.4000000000000000e+01,
      "is_correct": 1.0000000000000000e+00,
      "ntl_threads": 1.6000000000000000e+01,
      "samples_count": 3.6000000000000000e+01
    },
    {
      "name": "bm_binary_raffle/7/49/min_time:0.000/repeats:1",
      "iterations": 1,
      "real_time": 1.0241952349980129e+12,
      "cpu_time": 9.7730068123000000e+11,
      "time_unit": "ns",
      "ad_hoc_enc_ns": 1.6650875889300000e+11,
      "all_ctxts_correct": 1.0000000000000000e+00,
      "helib_level": 9.0000000000000000e+00,
      "helib_m": 8.1910000000000000e+03,
      "helib_simd_size": 6.3000000000000000e+02,
      "input_size": 1.2800000000000000e+02,
      "is_correct": 1.0000000000000000e+00,
      "ntl_threads": 1.6000000000000000e+01,
      "samples_count": 4.9000000000000000e+01
    },
    {
      "name": "bm_binary_raffle/8/64/min_time:0.000/repeats:1",
      "iterations": 1,
      "real_time": 2.5838353397380562e+12,
      "cpu_time": 2.4722959891450000e+12,
      "time_unit": "ns",
      "ad_hoc_enc_ns": 4.1743292873600000e+11,
      "all_ctxts_correct": 1.0000000000000000e+00,
      "helib_level": 9.0000000000000000e+00,
      "helib_m": 8.1910000000000000e+03,
      "helib_simd_size": 6.3000000000000000e+02,
      "input_size": 2.5600000000000000e+02,
      "is_correct": 1.0000000000000000e+00,
      "ntl_threads": 1.6000000000000000e+01,
      "samples_count": 6.4000000000000000e+01
    },
    {
      "name": "bm_binary_raffle/9/81/min_time:0.000/repeats:1",
      "iterations": 1,
      "real_time": 1.1734670580651961e+13,
      "cpu_time": 1.1325618553355000e+13,
      "time_unit": "ns",
      "ad_hoc_enc_ns": 1.7250210157630000e+12,
      "all_ctxts_correct": 1.0000000000000000e+00,
      "helib_level": 1.0000000000000000e+01,
      "helib_m": 1.0261000000000000e+04,
      "helib_simd_size": 3.3000000000000000e+02,
      "input_size": 5.1200000000000000e+02,
      "is_correct": 1.0000000000000000e+00,
      "ntl_threads": 1.6000000000000000e+01,
      "samples_count": 8.1000000000000000e+01
    },
    {
      "name": "bm_binary_raffle/10/100/min_time:0.000/repeats:1",
      "iterations": 1,
      "real_time": 2.9282301523453090e+13,
      "cpu_time": 2.8271628511345000e+13,
      "time_unit": "ns",
      "ad_hoc_enc_ns": 4.2583366618640000e+12,
      "all_ctxts_correct": 1.0000000000000000e+00,
      "helib_level": 1.0000000000000000e+01,
      "helib_m": 1.0261000000000000e+04,
      "helib_simd_size": 3.3000000000000000e+02,
      "input_size": 1.0240000000000000e+03,
      "is_correct": 1.0000000000000000e+00,
      "ntl_threads": 1.6000000000000000e+01,
      "samples_count": 1.0000000000000000e+02
    },
    {
      "name": "bm_binary_raffle/11/121/min_time:0.000/repeats:1",
      "iterations": 1,
      "real_time": 7.0313346348903953e+13,
      "cpu_time": 6.7981488238005000e+13,
      "time_unit": "ns",
      "ad_hoc_enc_ns": 1.0174356955568000e+13,
      "all_ctxts_correct": 0.0000000000000000e+00,
      "helib_level": 1.0000000000000000e+01,
      "helib_m": 1.0261000000000000e+04,
      "helib_simd_size": 3.3000000000000000e+02,
      "input_size": 2.0480000000000000e+03,
      "is_correct": 0.0000000000000000e+00,
      "ntl_threads": 1.6000000000000000e+01,
      "samples_count": 1.2100000000000000e+02
    },
    {
      "name": "bm_binary_raffle/12/144/min_time:0.000/repeats:1",
      "iterations": 1,
      "real_time": 1.8312905104882097e+14,
      "cpu_time": 1.7622355184280000e+14,
      "time_unit": "ns",
      "ad_hoc_enc_ns": 2.5032865760991000e+13,
      "all_ctxts_correct": 1.0000000000000000e+00,
      "helib_level": 1.1000000000000000e+01,
      "helib_m": 1.0261000000000000e+04,
      "helib_simd_size": 3.3000000000000000e+02,
      "input_size": 4.0960000000000000e+03,
      "is_correct": 1.0000000000000000e+00,
      "ntl_threads": 1.6000000000000000e+01,
      "samples_count": 1.4400000000000000e+02
    },
    {
      "name": "bm_binary_raffle/13/169/min_time:0.000/repeats:1",
      "iterations": 1,
      "real_time": 4.4306719437875375e+14,
      "cpu_time": 4.2451000179008300e+14,
      "time_unit": "ns",
      "ad_hoc_enc_ns": 6.0281741647770000e+13,
      "all_ctxts_correct": 1.0000000000000000e+00,
      "helib_level": 1.1000000000000000e+01,
      "helib_m": 1.0261000000000000e+04,
      "helib_simd_size": 3.3000000000000000e+02,
      "input_size": 8.1920000000000000e+03,
      "is_correct": 1.0000000000000000e+00,
      "ntl_threads": 1.6000000000000000e+01,
      "samples_count": 1.6900000000000000e+02
    }